%YAML 1.1
%TAG !u! tag:unity3d.com,2011:
--- !u!114 &11400000
MonoBehaviour:
  m_ObjectHideFlags: 0
  m_CorrespondingSourceObject: {fileID: 0}
  m_PrefabInstance: {fileID: 0}
  m_PrefabAsset: {fileID: 0}
  m_GameObject: {fileID: 0}
  m_Enabled: 1
  m_EditorHideFlags: 0
  m_Script: {fileID: 11500000, guid: 138c6365dc9084fdbbd499d2348b7711, type: 3}
  m_Name: Turret[Enemy]
  m_EditorClassIdentifier: 
  movementConfig:
    movementType: 3
    rotationSpeed: 75
    movementSpeed: 0
    rotationOffsetRate: 0.2
    movementOffsetRate: 0.1
  weaponConfig:
    fireRate: 0
    reloadTime: 0.5
    clip: 1
    damage: 10
  health: 30
